{
  "navigation": {
    "name": "jsdcloud",
    "url": "/cloud/jira/service-desk/",
    "title": "Jira Service Desk Cloud",
    "categories": [
      {
        "url": "/cloud/jira/service-desk/",
        "title": "Guides",
        "indexLinkTitle": "Latest updates",
        "name": "devguide",
        "subcategories": [
          {
            "name": "intro",
            "expandAlways": true,
            "title": "Introduction and basics",
            "items": [
              {
                "url": "/cloud/jira/service-desk/integrating-with-jsd-cloud",
                "title": "Integrating with Jira Service Desk Cloud"
              },
              {
                "url": "/cloud/jira/service-desk/getting-started",
                "title": "Getting started"
              },
              {
                "url": "/cloud/jira/service-desk/architecture-overview",
                "title": "Architecture overview"
              },
              {
                "url": "/cloud/jira/service-desk/frameworks-and-tools",
                "title": "Frameworks and tools"
              },
              {
                "url": "/cloud/jira/service-desk/security-overview",
                "title": "Security overview"
              }
            ]
          },
          {
            "title": "Security for Connect apps",
            "name": "securityconnect",
            "expandAlways": true,
            "items": [
              {
                "title": "Security for Connect apps",
                "url": "/cloud/jira/service-desk/security-for-connect-apps"
              },
              {
                "title": "Authentication for Connect apps",
                "url": "/cloud/jira/service-desk/authentication-for-apps"
              },
              {
                "title": "Understanding JWT for Connect apps",
                "url": "/cloud/jira/service-desk/understanding-jwt"
              },
              {
                "title": "User impersonation for Connect apps",
                "url": "/cloud/jira/service-desk/oauth-2-jwt-bearer-token-authorization-grant-type"
              }
            ]
          },
          {
            "title": "Security for other integrations",
            "name": "securityother",
            "expandAlways": true,
            "items": [
              {
                "title": "Security for other integrations",
                "url": "/cloud/jira/service-desk/security-for-other-integrations"
              },
              {
                "title": "OAuth 2.0 (3LO) for apps",
                "url": "/cloud/jira/service-desk/oauth-2-authorization-code-grants-3lo-for-apps"
              },
              {
                "url": "/cloud/jira/service-desk/jira-rest-api-oauth-authentication",
                "title": "OAuth for REST APIs"
              },
              {
                "url": "/cloud/jira/service-desk/jira-rest-api-basic-authentication",
                "title": "Basic auth for REST APIs"
              },
              {
                "url": "/cloud/jira/service-desk/jira-rest-api-cookie-based-authentication",
                "title": "Cookie-based auth for REST APIs"
              }
            ]
          },
          {
            "name": "guides",
            "expandAlways": true,
            "title": "Learning",
            "items": [
              {
                "id": "tutorialsAndGuides",
                "url": "/cloud/jira/service-desk/tutorials-and-guides/",
                "title": "Tutorials and guides"
              },
              {
                "title": "Connect cookbook",
                "url": "/cloud/jira/service-desk/connect-cookbook"
              },
              {
                "url": "/cloud/jira/service-desk/patterns-and-examples/",
                "title": "Patterns and examples"
              },
              {
                "url": "/cloud/jira/service-desk/storing-data-without-a-database",
                "title": "Storing data without a database"
              }
            ]
          },
          {
            "title": "Privacy guidelines",
            "expandAlways": true,
            "name": "privacy",
            "items": [
              {
                "title": "User privacy guide for app developers",
                "url": "/cloud/jira/service-desk/user-privacy-developer-guide"
              },
              {
                "title": "Profile visibility",
                "url": "/cloud/jira/service-desk/profile-visibility"
              }
            ]
          },
          {
            "name": "blocks",
            "expandAlways": true,
            "title": "Building blocks",
            "items": [
              {
                "url": "/cloud/jira/service-desk/app-descriptor",
                "title": "App descriptor"
              },
              {
                "url": "/cloud/jira/service-desk/conditions",
                "title": "Conditions"
              },
              {
                "url": "/cloud/jira/service-desk/context-parameters",
                "title": "Context parameters"
              },
              {
                "url": "/cloud/jira/service-desk/jira-entity-properties",
                "title": "Entity properties"
              },
              {
                "title": "Internationalization",
                "url": "/cloud/jira/service-desk/internationalization/"
              },
              {
                "title": "Jira expressions",
                "url": "/cloud/jira/service-desk/jira-expressions"
              },
              {
                "url": "/cloud/jira/service-desk/scopes",
                "title": "Scopes"
              },
              {
                "url": "/cloud/jira/service-desk/webhooks",
                "title": "Webhooks"
              }
            ]
          },
          {
            "name": "other",
            "expandAlways": true,
            "title": "Other considerations",
            "items": [
              {
                "title": "Atlassian Design Guidelines",
                "url": "https://design.atlassian.com/"
              },
              {
                "title": "Atlaskit",
                "url": "https://atlaskit.atlassian.com/"
              },
              {
                "title": "Atlassian Marketplace",
                "url": "/platform/marketplace/"
              },
              {
                "title": "Cloud app licensing",
                "url": "/platform/marketplace/cloud-app-licensing/"
              }
            ]
          }
        ]
      },
      {
        "title": "Reference",
        "url": "/cloud/jira/service-desk/rest/",
        "name": "reference",
        "subcategories": [
          {
            "name": "rest",
            "title": "REST API",
            "items": [
              {
                "title": "REST API",
                "url": "/cloud/jira/service-desk/rest/"
              }
            ]
          },
          {
            "name": "modules",
            "title": "Modules",
            "items": [
              {
                "url": "/cloud/jira/service-desk/about-jira-modules",
                "title": "About Jira Service Desk modules"
              },
              {
                "url": "/cloud/jira/service-desk/agent-view",
                "title": "Agent view"
              },
              {
                "url": "/cloud/jira/service-desk/automation-action",
                "title": "Automation action"
              },
              {
                "url": "/cloud/jira/service-desk/customer-portal",
                "title": "Customer portal"
              },
              {
                "url": "/cloud/jira/service-desk/request-create-property-panel",
                "title": "Request create property panel"
              },
              {
                "title": "Administration UI locations",
                "url": "/cloud/jira/software/administration-ui-locations"
              },
              {
                "url": "#",
                "title": "Dashboard item"
              },
              {
                "url": "#",
                "title": "Dialog"
              },
              {
                "url": "#",
                "title": "Entity property"
              },
              {
                "url": "#",
                "title": "Global permission"
              },
              {
                "url": "#",
                "title": "Issue field"
              },
              {
                "url": "/cloud/jira/service-desk/issue-view-ui-locations",
                "title": "Issue view UI locations"
              },
              {
                "title": "Home container",
                "url": "/cloud/jira/service-desk/home-container"
              },
              {
                "url": "#",
                "title": "Page"
              },
              {
                "url": "/cloud/jira/service-desk/portal-icon",
                "title": "Portal icon"
              },
              {
                "url": "#",
                "title": "Project admin tab panel"
              },
              {
                "url": "#",
                "title": "Project permission"
              },
              {
                "title": "Project settings UI locations",
                "url": "/cloud/jira/platform/project-settings-ui-locations"
              },
              {
                "title": "Project sidebar",
                "url": "/cloud/jira/service-desk/jira-project-sidebar"
              },
              {
                "url": "#",
                "title": "Report"
              },
              {
                "url": "#",
                "title": "Search request view"
              },
              {
                "url": "#",
                "title": "Tab panel"
              },
              {
                "url": "/cloud/jira/service-desk/extension-points-for-the-end-user-ui",
                "title": "User profile menu"
              },
              {
                "url": "#",
                "title": "Web item"
              },
              {
                "url": "/cloud/jira/service-desk/web-item-target",
                "title": "Web item target"
              },
              {
                "url": "#",
                "title": "Web panel"
              },
              {
                "url": "#",
                "title": "Web Section"
              },
              {
                "url": "#",
                "title": "Workflow post function"
              }
            ]
          },
          {
            "name": "jsapi",
            "title": "JavaScript API",
            "items": [
              {
                "url": "/cloud/jira/service-desk/about-the-javascript-api",
                "title": "About the JavaScript API"
              }
            ]
          },
          {
            "title": "App properties API",
            "name": "appapi",
            "items": [
              {
                "title": "App properties API",
                "url": "/cloud/jira/service-desk/app-properties-api/"
              }
            ]
          }
        ]
      },
      {
        "name": "help",
        "title": "Resources",
        "url": "/cloud/jira/service-desk/get-help/"
      }
    ]
  },
  "redirects": [
    {
      "from": "/add-on-descriptor/",
      "to": "/app-descriptor/"
    },
    {
      "from": "/authentication-for-add-ons/",
      "to": "/authentication-for-apps/"
    },
    {
      "from": "/build-a-jira-add-on-using-a-framework/",
      "to": "/build-a-jira-app-using-a-framework/"
    },
    {
      "from": "/jira-rest-api-scopes/",
      "to": "/cloud/jira/service-desk/rest/"
    },
    {
      "from": "/jira-service-desk-cloud-rest-api/",
      "to": "/rest/"
    },
    {
      "from": "/jira-service-desk-rest-api-scopes/",
      "to": "/rest/"
    }
  ]
}
